num_ret               	351	1813
num_rel               	351	48
num_rel_ret           	351	41
map                   	351	0.3510
Rprec                 	351	0.4375
bpref                 	351	0.3993
recip_rank            	351	0.5000
iprec_at_recall_0.00  	351	0.8125
iprec_at_recall_0.10  	351	0.8125
iprec_at_recall_0.20  	351	0.8125
iprec_at_recall_0.30  	351	0.8000
iprec_at_recall_0.40  	351	0.6452
iprec_at_recall_0.50  	351	0.1081
iprec_at_recall_0.60  	351	0.0779
iprec_at_recall_0.70  	351	0.0561
iprec_at_recall_0.80  	351	0.0304
iprec_at_recall_0.90  	351	0.0000
iprec_at_recall_1.00  	351	0.0000
P_5                   	351	0.6000
P_10                  	351	0.8000
P_15                  	351	0.8000
P_20                  	351	0.8000
P_30                  	351	0.6333
P_100                 	351	0.2200
P_200                 	351	0.1150
P_500                 	351	0.0620
P_1000                	351	0.0360
num_ret               	352	2783
num_rel               	352	246
num_rel_ret           	352	33
map                   	352	0.0353
Rprec                 	352	0.0854
bpref                 	352	0.0749
recip_rank            	352	0.5000
iprec_at_recall_0.00  	352	0.6667
iprec_at_recall_0.10  	352	0.0405
iprec_at_recall_0.20  	352	0.0000
iprec_at_recall_0.30  	352	0.0000
iprec_at_recall_0.40  	352	0.0000
iprec_at_recall_0.50  	352	0.0000
iprec_at_recall_0.60  	352	0.0000
iprec_at_recall_0.70  	352	0.0000
iprec_at_recall_0.80  	352	0.0000
iprec_at_recall_0.90  	352	0.0000
iprec_at_recall_1.00  	352	0.0000
P_5                   	352	0.4000
P_10                  	352	0.5000
P_15                  	352	0.4667
P_20                  	352	0.4500
P_30                  	352	0.4333
P_100                 	352	0.1700
P_200                 	352	0.1050
P_500                 	352	0.0440
P_1000                	352	0.0270
num_ret               	353	1787
num_rel               	353	122
num_rel_ret           	353	73
map                   	353	0.2694
Rprec                 	353	0.4426
bpref                 	353	0.3594
recip_rank            	353	1.0000
iprec_at_recall_0.00  	353	1.0000
iprec_at_recall_0.10  	353	0.4921
iprec_at_recall_0.20  	353	0.4921
iprec_at_recall_0.30  	353	0.4486
iprec_at_recall_0.40  	353	0.4474
iprec_at_recall_0.50  	353	0.3861
iprec_at_recall_0.60  	353	0.0000
iprec_at_recall_0.70  	353	0.0000
iprec_at_recall_0.80  	353	0.0000
iprec_at_recall_0.90  	353	0.0000
iprec_at_recall_1.00  	353	0.0000
P_5                   	353	0.6000
P_10                  	353	0.5000
P_15                  	353	0.4000
P_20                  	353	0.4000
P_30                  	353	0.4333
P_100                 	353	0.4300
P_200                 	353	0.3450
P_500                 	353	0.1440
P_1000                	353	0.0720
num_ret               	354	2930
num_rel               	354	361
num_rel_ret           	354	224
map                   	354	0.0933
Rprec                 	354	0.1662
bpref                 	354	0.1168
recip_rank            	354	0.2500
iprec_at_recall_0.00  	354	0.3333
iprec_at_recall_0.10  	354	0.1960
iprec_at_recall_0.20  	354	0.1719
iprec_at_recall_0.30  	354	0.1540
iprec_at_recall_0.40  	354	0.1417
iprec_at_recall_0.50  	354	0.1172
iprec_at_recall_0.60  	354	0.0864
iprec_at_recall_0.70  	354	0.0000
iprec_at_recall_0.80  	354	0.0000
iprec_at_recall_0.90  	354	0.0000
iprec_at_recall_1.00  	354	0.0000
P_5                   	354	0.2000
P_10                  	354	0.2000
P_15                  	354	0.2667
P_20                  	354	0.2000
P_30                  	354	0.2667
P_100                 	354	0.1400
P_200                 	354	0.1800
P_500                 	354	0.1700
P_1000                	354	0.1420
num_ret               	355	2356
num_rel               	355	45
num_rel_ret           	355	28
map                   	355	0.0947
Rprec                 	355	0.1556
bpref                 	355	0.1180
recip_rank            	355	1.0000
iprec_at_recall_0.00  	355	1.0000
iprec_at_recall_0.10  	355	0.3125
iprec_at_recall_0.20  	355	0.1915
iprec_at_recall_0.30  	355	0.1079
iprec_at_recall_0.40  	355	0.0923
iprec_at_recall_0.50  	355	0.0219
iprec_at_recall_0.60  	355	0.0129
iprec_at_recall_0.70  	355	0.0000
iprec_at_recall_0.80  	355	0.0000
iprec_at_recall_0.90  	355	0.0000
iprec_at_recall_1.00  	355	0.0000
P_5                   	355	0.2000
P_10                  	355	0.3000
P_15                  	355	0.2667
P_20                  	355	0.2500
P_30                  	355	0.1667
P_100                 	355	0.1100
P_200                 	355	0.0900
P_500                 	355	0.0420
P_1000                	355	0.0220
num_ret               	356	1964
num_rel               	356	17
num_rel_ret           	356	3
map                   	356	0.0106
Rprec                 	356	0.0000
bpref                 	356	0.0000
recip_rank            	356	0.0400
iprec_at_recall_0.00  	356	0.0750
iprec_at_recall_0.10  	356	0.0750
iprec_at_recall_0.20  	356	0.0000
iprec_at_recall_0.30  	356	0.0000
iprec_at_recall_0.40  	356	0.0000
iprec_at_recall_0.50  	356	0.0000
iprec_at_recall_0.60  	356	0.0000
iprec_at_recall_0.70  	356	0.0000
iprec_at_recall_0.80  	356	0.0000
iprec_at_recall_0.90  	356	0.0000
iprec_at_recall_1.00  	356	0.0000
P_5                   	356	0.0000
P_10                  	356	0.0000
P_15                  	356	0.0000
P_20                  	356	0.0000
P_30                  	356	0.0333
P_100                 	356	0.0300
P_200                 	356	0.0150
P_500                 	356	0.0060
P_1000                	356	0.0030
num_ret               	357	3036
num_rel               	357	270
num_rel_ret           	357	195
map                   	357	0.3040
Rprec                 	357	0.3370
bpref                 	357	0.3419
recip_rank            	357	1.0000
iprec_at_recall_0.00  	357	1.0000
iprec_at_recall_0.10  	357	0.7949
iprec_at_recall_0.20  	357	0.5684
iprec_at_recall_0.30  	357	0.3821
iprec_at_recall_0.40  	357	0.3051
iprec_at_recall_0.50  	357	0.2486
iprec_at_recall_0.60  	357	0.1680
iprec_at_recall_0.70  	357	0.0973
iprec_at_recall_0.80  	357	0.0000
iprec_at_recall_0.90  	357	0.0000
iprec_at_recall_1.00  	357	0.0000
P_5                   	357	1.0000
P_10                  	357	0.9000
P_15                  	357	0.9333
P_20                  	357	0.8500
P_30                  	357	0.8000
P_100                 	357	0.5400
P_200                 	357	0.4000
P_500                 	357	0.2580
P_1000                	357	0.1660
num_ret               	358	2292
num_rel               	358	51
num_rel_ret           	358	48
map                   	358	0.1544
Rprec                 	358	0.2549
bpref                 	358	0.1569
recip_rank            	358	0.2500
iprec_at_recall_0.00  	358	0.4545
iprec_at_recall_0.10  	358	0.2558
iprec_at_recall_0.20  	358	0.2558
iprec_at_recall_0.30  	358	0.2424
iprec_at_recall_0.40  	358	0.1667
iprec_at_recall_0.50  	358	0.1134
iprec_at_recall_0.60  	358	0.1023
iprec_at_recall_0.70  	358	0.0870
iprec_at_recall_0.80  	358	0.0622
iprec_at_recall_0.90  	358	0.0531
iprec_at_recall_1.00  	358	0.0000
P_5                   	358	0.4000
P_10                  	358	0.4000
P_15                  	358	0.3333
P_20                  	358	0.2500
P_30                  	358	0.2333
P_100                 	358	0.1900
P_200                 	358	0.1200
P_500                 	358	0.0780
P_1000                	358	0.0460
num_ret               	359	2521
num_rel               	359	28
num_rel_ret           	359	18
map                   	359	0.0113
Rprec                 	359	0.0000
bpref                 	359	0.0000
recip_rank            	359	0.0222
iprec_at_recall_0.00  	359	0.0333
iprec_at_recall_0.10  	359	0.0333
iprec_at_recall_0.20  	359	0.0303
iprec_at_recall_0.30  	359	0.0232
iprec_at_recall_0.40  	359	0.0104
iprec_at_recall_0.50  	359	0.0083
iprec_at_recall_0.60  	359	0.0083
iprec_at_recall_0.70  	359	0.0000
iprec_at_recall_0.80  	359	0.0000
iprec_at_recall_0.90  	359	0.0000
iprec_at_recall_1.00  	359	0.0000
P_5                   	359	0.0000
P_10                  	359	0.0000
P_15                  	359	0.0000
P_20                  	359	0.0000
P_30                  	359	0.0000
P_100                 	359	0.0200
P_200                 	359	0.0300
P_500                 	359	0.0180
P_1000                	359	0.0110
num_ret               	360	3125
num_rel               	360	151
num_rel_ret           	360	128
map                   	360	0.4459
Rprec                 	360	0.4371
bpref                 	360	0.4389
recip_rank            	360	1.0000
iprec_at_recall_0.00  	360	1.0000
iprec_at_recall_0.10  	360	0.9000
iprec_at_recall_0.20  	360	0.8293
iprec_at_recall_0.30  	360	0.8070
iprec_at_recall_0.40  	360	0.5041
iprec_at_recall_0.50  	360	0.4231
iprec_at_recall_0.60  	360	0.3239
iprec_at_recall_0.70  	360	0.1815
iprec_at_recall_0.80  	360	0.0707
iprec_at_recall_0.90  	360	0.0000
iprec_at_recall_1.00  	360	0.0000
P_5                   	360	1.0000
P_10                  	360	0.8000
P_15                  	360	0.8667
P_20                  	360	0.9000
P_30                  	360	0.8333
P_100                 	360	0.5600
P_200                 	360	0.4000
P_500                 	360	0.2060
P_1000                	360	0.1140
num_ret               	361	2051
num_rel               	361	9
num_rel_ret           	361	7
map                   	361	0.3210
Rprec                 	361	0.5556
bpref                 	361	0.3580
recip_rank            	361	0.5000
iprec_at_recall_0.00  	361	0.5556
iprec_at_recall_0.10  	361	0.5556
iprec_at_recall_0.20  	361	0.5556
iprec_at_recall_0.30  	361	0.5556
iprec_at_recall_0.40  	361	0.5556
iprec_at_recall_0.50  	361	0.5556
iprec_at_recall_0.60  	361	0.2857
iprec_at_recall_0.70  	361	0.2188
iprec_at_recall_0.80  	361	0.0000
iprec_at_recall_0.90  	361	0.0000
iprec_at_recall_1.00  	361	0.0000
P_5                   	361	0.4000
P_10                  	361	0.5000
P_15                  	361	0.3333
P_20                  	361	0.2500
P_30                  	361	0.2000
P_100                 	361	0.0700
P_200                 	361	0.0350
P_500                 	361	0.0140
P_1000                	361	0.0070
num_ret               	362	2325
num_rel               	362	39
num_rel_ret           	362	27
map                   	362	0.0778
Rprec                 	362	0.2308
bpref                 	362	0.1368
recip_rank            	362	0.0909
iprec_at_recall_0.00  	362	0.2857
iprec_at_recall_0.10  	362	0.2857
iprec_at_recall_0.20  	362	0.2500
iprec_at_recall_0.30  	362	0.1008
iprec_at_recall_0.40  	362	0.0523
iprec_at_recall_0.50  	362	0.0484
iprec_at_recall_0.60  	362	0.0210
iprec_at_recall_0.70  	362	0.0000
iprec_at_recall_0.80  	362	0.0000
iprec_at_recall_0.90  	362	0.0000
iprec_at_recall_1.00  	362	0.0000
P_5                   	362	0.0000
P_10                  	362	0.0000
P_15                  	362	0.2667
P_20                  	362	0.2500
P_30                  	362	0.2333
P_100                 	362	0.1000
P_200                 	362	0.0700
P_500                 	362	0.0400
P_1000                	362	0.0230
num_ret               	363	2649
num_rel               	363	16
num_rel_ret           	363	15
map                   	363	0.1141
Rprec                 	363	0.1875
bpref                 	363	0.1250
recip_rank            	363	0.5000
iprec_at_recall_0.00  	363	0.5000
iprec_at_recall_0.10  	363	0.4000
iprec_at_recall_0.20  	363	0.1724
iprec_at_recall_0.30  	363	0.1724
iprec_at_recall_0.40  	363	0.1296
iprec_at_recall_0.50  	363	0.0184
iprec_at_recall_0.60  	363	0.0184
iprec_at_recall_0.70  	363	0.0129
iprec_at_recall_0.80  	363	0.0108
iprec_at_recall_0.90  	363	0.0086
iprec_at_recall_1.00  	363	0.0000
P_5                   	363	0.4000
P_10                  	363	0.2000
P_15                  	363	0.2000
P_20                  	363	0.1500
P_30                  	363	0.1667
P_100                 	363	0.0700
P_200                 	363	0.0350
P_500                 	363	0.0160
P_1000                	363	0.0120
num_ret               	364	128
num_rel               	364	35
num_rel_ret           	364	33
map                   	364	0.4753
Rprec                 	364	0.4571
bpref                 	364	0.4057
recip_rank            	364	1.0000
iprec_at_recall_0.00  	364	1.0000
iprec_at_recall_0.10  	364	0.7857
iprec_at_recall_0.20  	364	0.7857
iprec_at_recall_0.30  	364	0.7857
iprec_at_recall_0.40  	364	0.5833
iprec_at_recall_0.50  	364	0.3830
iprec_at_recall_0.60  	364	0.3088
iprec_at_recall_0.70  	364	0.2941
iprec_at_recall_0.80  	364	0.2941
iprec_at_recall_0.90  	364	0.2759
iprec_at_recall_1.00  	364	0.0000
P_5                   	364	0.6000
P_10                  	364	0.7000
P_15                  	364	0.7333
P_20                  	364	0.5500
P_30                  	364	0.5000
P_100                 	364	0.2900
P_200                 	364	0.1650
P_500                 	364	0.0660
P_1000                	364	0.0330
num_ret               	365	1848
num_rel               	365	35
num_rel_ret           	365	35
map                   	365	0.6585
Rprec                 	365	0.6857
bpref                 	365	0.6588
recip_rank            	365	0.5000
iprec_at_recall_0.00  	365	0.9231
iprec_at_recall_0.10  	365	0.9231
iprec_at_recall_0.20  	365	0.9231
iprec_at_recall_0.30  	365	0.9231
iprec_at_recall_0.40  	365	0.8750
iprec_at_recall_0.50  	365	0.8182
iprec_at_recall_0.60  	365	0.7500
iprec_at_recall_0.70  	365	0.5435
iprec_at_recall_0.80  	365	0.3294
iprec_at_recall_0.90  	365	0.2920
iprec_at_recall_1.00  	365	0.2800
P_5                   	365	0.8000
P_10                  	365	0.9000
P_15                  	365	0.8667
P_20                  	365	0.8000
P_30                  	365	0.7000
P_100                 	365	0.3100
P_200                 	365	0.1750
P_500                 	365	0.0700
P_1000                	365	0.0350
num_ret               	366	3269
num_rel               	366	99
num_rel_ret           	366	97
map                   	366	0.4585
Rprec                 	366	0.4343
bpref                 	366	0.4351
recip_rank            	366	1.0000
iprec_at_recall_0.00  	366	1.0000
iprec_at_recall_0.10  	366	0.6000
iprec_at_recall_0.20  	366	0.5192
iprec_at_recall_0.30  	366	0.4800
iprec_at_recall_0.40  	366	0.4800
iprec_at_recall_0.50  	366	0.4800
iprec_at_recall_0.60  	366	0.4800
iprec_at_recall_0.70  	366	0.4321
iprec_at_recall_0.80  	366	0.4082
iprec_at_recall_0.90  	366	0.3896
iprec_at_recall_1.00  	366	0.0000
P_5                   	366	0.6000
P_10                  	366	0.4000
P_15                  	366	0.5333
P_20                  	366	0.5000
P_30                  	366	0.5333
P_100                 	366	0.4400
P_200                 	366	0.4050
P_500                 	366	0.1920
P_1000                	366	0.0960
num_ret               	367	413
num_rel               	367	189
num_rel_ret           	367	74
map                   	367	0.0787
Rprec                 	367	0.1640
bpref                 	367	0.1140
recip_rank            	367	0.3333
iprec_at_recall_0.00  	367	0.4286
iprec_at_recall_0.10  	367	0.1863
iprec_at_recall_0.20  	367	0.1805
iprec_at_recall_0.30  	367	0.1805
iprec_at_recall_0.40  	367	0.0000
iprec_at_recall_0.50  	367	0.0000
iprec_at_recall_0.60  	367	0.0000
iprec_at_recall_0.70  	367	0.0000
iprec_at_recall_0.80  	367	0.0000
iprec_at_recall_0.90  	367	0.0000
iprec_at_recall_1.00  	367	0.0000
P_5                   	367	0.4000
P_10                  	367	0.3000
P_15                  	367	0.3333
P_20                  	367	0.3000
P_30                  	367	0.2667
P_100                 	367	0.1800
P_200                 	367	0.1650
P_500                 	367	0.1480
P_1000                	367	0.0740
num_ret               	368	3239
num_rel               	368	61
num_rel_ret           	368	45
map                   	368	0.4791
Rprec                 	368	0.5082
bpref                 	368	0.4738
recip_rank            	368	1.0000
iprec_at_recall_0.00  	368	1.0000
iprec_at_recall_0.10  	368	1.0000
iprec_at_recall_0.20  	368	0.9375
iprec_at_recall_0.30  	368	0.8750
iprec_at_recall_0.40  	368	0.8621
iprec_at_recall_0.50  	368	0.5254
iprec_at_recall_0.60  	368	0.2216
iprec_at_recall_0.70  	368	0.0546
iprec_at_recall_0.80  	368	0.0000
iprec_at_recall_0.90  	368	0.0000
iprec_at_recall_1.00  	368	0.0000
P_5                   	368	1.0000
P_10                  	368	0.9000
P_15                  	368	0.9333
P_20                  	368	0.8500
P_30                  	368	0.8333
P_100                 	368	0.3400
P_200                 	368	0.1850
P_500                 	368	0.0800
P_1000                	368	0.0430
num_ret               	369	62
num_rel               	369	13
num_rel_ret           	369	9
map                   	369	0.2692
Rprec                 	369	0.2308
bpref                 	369	0.1953
recip_rank            	369	1.0000
iprec_at_recall_0.00  	369	1.0000
iprec_at_recall_0.10  	369	1.0000
iprec_at_recall_0.20  	369	0.3000
iprec_at_recall_0.30  	369	0.2500
iprec_at_recall_0.40  	369	0.2143
iprec_at_recall_0.50  	369	0.1842
iprec_at_recall_0.60  	369	0.1667
iprec_at_recall_0.70  	369	0.0000
iprec_at_recall_0.80  	369	0.0000
iprec_at_recall_0.90  	369	0.0000
iprec_at_recall_1.00  	369	0.0000
P_5                   	369	0.4000
P_10                  	369	0.3000
P_15                  	369	0.2000
P_20                  	369	0.2000
P_30                  	369	0.2000
P_100                 	369	0.0900
P_200                 	369	0.0450
P_500                 	369	0.0180
P_1000                	369	0.0090
num_ret               	370	2345
num_rel               	370	336
num_rel_ret           	370	194
map                   	370	0.1179
Rprec                 	370	0.2619
bpref                 	370	0.1859
recip_rank            	370	0.0714
iprec_at_recall_0.00  	370	0.2741
iprec_at_recall_0.10  	370	0.2741
iprec_at_recall_0.20  	370	0.2741
iprec_at_recall_0.30  	370	0.2471
iprec_at_recall_0.40  	370	0.2228
iprec_at_recall_0.50  	370	0.1509
iprec_at_recall_0.60  	370	0.0000
iprec_at_recall_0.70  	370	0.0000
iprec_at_recall_0.80  	370	0.0000
iprec_at_recall_0.90  	370	0.0000
iprec_at_recall_1.00  	370	0.0000
P_5                   	370	0.0000
P_10                  	370	0.0000
P_15                  	370	0.0667
P_20                  	370	0.0500
P_30                  	370	0.1000
P_100                 	370	0.1600
P_200                 	370	0.2400
P_500                 	370	0.2320
P_1000                	370	0.1620
num_ret               	371	2203
num_rel               	371	17
num_rel_ret           	371	5
map                   	371	0.0018
Rprec                 	371	0.0000
bpref                 	371	0.0000
recip_rank            	371	0.0031
iprec_at_recall_0.00  	371	0.0080
iprec_at_recall_0.10  	371	0.0080
iprec_at_recall_0.20  	371	0.0080
iprec_at_recall_0.30  	371	0.0000
iprec_at_recall_0.40  	371	0.0000
iprec_at_recall_0.50  	371	0.0000
iprec_at_recall_0.60  	371	0.0000
iprec_at_recall_0.70  	371	0.0000
iprec_at_recall_0.80  	371	0.0000
iprec_at_recall_0.90  	371	0.0000
iprec_at_recall_1.00  	371	0.0000
P_5                   	371	0.0000
P_10                  	371	0.0000
P_15                  	371	0.0000
P_20                  	371	0.0000
P_30                  	371	0.0000
P_100                 	371	0.0000
P_200                 	371	0.0000
P_500                 	371	0.0080
P_1000                	371	0.0050
num_ret               	372	2339
num_rel               	372	49
num_rel_ret           	372	35
map                   	372	0.0985
Rprec                 	372	0.2041
bpref                 	372	0.1379
recip_rank            	372	1.0000
iprec_at_recall_0.00  	372	1.0000
iprec_at_recall_0.10  	372	0.2500
iprec_at_recall_0.20  	372	0.2174
iprec_at_recall_0.30  	372	0.0949
iprec_at_recall_0.40  	372	0.0431
iprec_at_recall_0.50  	372	0.0264
iprec_at_recall_0.60  	372	0.0264
iprec_at_recall_0.70  	372	0.0237
iprec_at_recall_0.80  	372	0.0000
iprec_at_recall_0.90  	372	0.0000
iprec_at_recall_1.00  	372	0.0000
P_5                   	372	0.4000
P_10                  	372	0.3000
P_15                  	372	0.2667
P_20                  	372	0.2500
P_30                  	372	0.2333
P_100                 	372	0.1100
P_200                 	372	0.0750
P_500                 	372	0.0400
P_1000                	372	0.0220
num_ret               	373	2366
num_rel               	373	33
num_rel_ret           	373	26
map                   	373	0.3579
Rprec                 	373	0.4545
bpref                 	373	0.3875
recip_rank            	373	1.0000
iprec_at_recall_0.00  	373	1.0000
iprec_at_recall_0.10  	373	0.8000
iprec_at_recall_0.20  	373	0.6923
iprec_at_recall_0.30  	373	0.6471
iprec_at_recall_0.40  	373	0.4688
iprec_at_recall_0.50  	373	0.2931
iprec_at_recall_0.60  	373	0.1058
iprec_at_recall_0.70  	373	0.0437
iprec_at_recall_0.80  	373	0.0000
iprec_at_recall_0.90  	373	0.0000
iprec_at_recall_1.00  	373	0.0000
P_5                   	373	0.8000
P_10                  	373	0.6000
P_15                  	373	0.6000
P_20                  	373	0.5500
P_30                  	373	0.4667
P_100                 	373	0.1700
P_200                 	373	0.1000
P_500                 	373	0.0440
P_1000                	373	0.0260
num_ret               	374	1881
num_rel               	374	204
num_rel_ret           	374	203
map                   	374	0.2797
Rprec                 	374	0.3676
bpref                 	374	0.2871
recip_rank            	374	0.5000
iprec_at_recall_0.00  	374	0.6667
iprec_at_recall_0.10  	374	0.4603
iprec_at_recall_0.20  	374	0.4419
iprec_at_recall_0.30  	374	0.4276
iprec_at_recall_0.40  	374	0.3293
iprec_at_recall_0.50  	374	0.2110
iprec_at_recall_0.60  	374	0.1848
iprec_at_recall_0.70  	374	0.1774
iprec_at_recall_0.80  	374	0.1765
iprec_at_recall_0.90  	374	0.1762
iprec_at_recall_1.00  	374	0.0000
P_5                   	374	0.4000
P_10                  	374	0.4000
P_15                  	374	0.4000
P_20                  	374	0.4000
P_30                  	374	0.3667
P_100                 	374	0.4100
P_200                 	374	0.3750
P_500                 	374	0.2080
P_1000                	374	0.1730
num_ret               	375	1840
num_rel               	375	80
num_rel_ret           	375	53
map                   	375	0.1928
Rprec                 	375	0.2750
bpref                 	375	0.2252
recip_rank            	375	0.5000
iprec_at_recall_0.00  	375	0.7273
iprec_at_recall_0.10  	375	0.7273
iprec_at_recall_0.20  	375	0.3953
iprec_at_recall_0.30  	375	0.2759
iprec_at_recall_0.40  	375	0.1407
iprec_at_recall_0.50  	375	0.1303
iprec_at_recall_0.60  	375	0.0818
iprec_at_recall_0.70  	375	0.0000
iprec_at_recall_0.80  	375	0.0000
iprec_at_recall_0.90  	375	0.0000
iprec_at_recall_1.00  	375	0.0000
P_5                   	375	0.6000
P_10                  	375	0.7000
P_15                  	375	0.6667
P_20                  	375	0.5500
P_30                  	375	0.5000
P_100                 	375	0.2500
P_200                 	375	0.1500
P_500                 	375	0.0900
P_1000                	375	0.0500
num_ret               	376	2759
num_rel               	376	102
num_rel_ret           	376	22
map                   	376	0.0080
Rprec                 	376	0.0294
bpref                 	376	0.0214
recip_rank            	376	0.3333
iprec_at_recall_0.00  	376	0.3333
iprec_at_recall_0.10  	376	0.0250
iprec_at_recall_0.20  	376	0.0103
iprec_at_recall_0.30  	376	0.0000
iprec_at_recall_0.40  	376	0.0000
iprec_at_recall_0.50  	376	0.0000
iprec_at_recall_0.60  	376	0.0000
iprec_at_recall_0.70  	376	0.0000
iprec_at_recall_0.80  	376	0.0000
iprec_at_recall_0.90  	376	0.0000
iprec_at_recall_1.00  	376	0.0000
P_5                   	376	0.2000
P_10                  	376	0.1000
P_15                  	376	0.0667
P_20                  	376	0.0500
P_30                  	376	0.0667
P_100                 	376	0.0300
P_200                 	376	0.0200
P_500                 	376	0.0240
P_1000                	376	0.0150
num_ret               	377	1829
num_rel               	377	39
num_rel_ret           	377	39
map                   	377	0.2873
Rprec                 	377	0.2821
bpref                 	377	0.2229
recip_rank            	377	1.0000
iprec_at_recall_0.00  	377	1.0000
iprec_at_recall_0.10  	377	0.4444
iprec_at_recall_0.20  	377	0.3600
iprec_at_recall_0.30  	377	0.3043
iprec_at_recall_0.40  	377	0.2769
iprec_at_recall_0.50  	377	0.2740
iprec_at_recall_0.60  	377	0.2609
iprec_at_recall_0.70  	377	0.1962
iprec_at_recall_0.80  	377	0.1788
iprec_at_recall_0.90  	377	0.0731
iprec_at_recall_1.00  	377	0.0364
P_5                   	377	0.4000
P_10                  	377	0.4000
P_15                  	377	0.4000
P_20                  	377	0.3500
P_30                  	377	0.3000
P_100                 	377	0.2500
P_200                 	377	0.1600
P_500                 	377	0.0700
P_1000                	377	0.0380
num_ret               	378	2107
num_rel               	378	98
num_rel_ret           	378	20
map                   	378	0.0044
Rprec                 	378	0.0306
bpref                 	378	0.0027
recip_rank            	378	0.0118
iprec_at_recall_0.00  	378	0.0385
iprec_at_recall_0.10  	378	0.0220
iprec_at_recall_0.20  	378	0.0117
iprec_at_recall_0.30  	378	0.0000
iprec_at_recall_0.40  	378	0.0000
iprec_at_recall_0.50  	378	0.0000
iprec_at_recall_0.60  	378	0.0000
iprec_at_recall_0.70  	378	0.0000
iprec_at_recall_0.80  	378	0.0000
iprec_at_recall_0.90  	378	0.0000
iprec_at_recall_1.00  	378	0.0000
P_5                   	378	0.0000
P_10                  	378	0.0000
P_15                  	378	0.0000
P_20                  	378	0.0000
P_30                  	378	0.0000
P_100                 	378	0.0300
P_200                 	378	0.0250
P_500                 	378	0.0200
P_1000                	378	0.0170
num_ret               	379	1146
num_rel               	379	16
num_rel_ret           	379	8
map                   	379	0.0411
Rprec                 	379	0.0625
bpref                 	379	0.0586
recip_rank            	379	0.5000
iprec_at_recall_0.00  	379	0.5000
iprec_at_recall_0.10  	379	0.0526
iprec_at_recall_0.20  	379	0.0278
iprec_at_recall_0.30  	379	0.0158
iprec_at_recall_0.40  	379	0.0136
iprec_at_recall_0.50  	379	0.0097
iprec_at_recall_0.60  	379	0.0000
iprec_at_recall_0.70  	379	0.0000
iprec_at_recall_0.80  	379	0.0000
iprec_at_recall_0.90  	379	0.0000
iprec_at_recall_1.00  	379	0.0000
P_5                   	379	0.2000
P_10                  	379	0.1000
P_15                  	379	0.0667
P_20                  	379	0.0500
P_30                  	379	0.0333
P_100                 	379	0.0200
P_200                 	379	0.0200
P_500                 	379	0.0120
P_1000                	379	0.0080
num_ret               	380	2012
num_rel               	380	7
num_rel_ret           	380	7
map                   	380	0.1652
Rprec                 	380	0.2857
bpref                 	380	0.1429
recip_rank            	380	0.3333
iprec_at_recall_0.00  	380	0.3333
iprec_at_recall_0.10  	380	0.3333
iprec_at_recall_0.20  	380	0.2857
iprec_at_recall_0.30  	380	0.1875
iprec_at_recall_0.40  	380	0.1875
iprec_at_recall_0.50  	380	0.1190
iprec_at_recall_0.60  	380	0.1190
iprec_at_recall_0.70  	380	0.1190
iprec_at_recall_0.80  	380	0.0632
iprec_at_recall_0.90  	380	0.0565
iprec_at_recall_1.00  	380	0.0565
P_5                   	380	0.2000
P_10                  	380	0.2000
P_15                  	380	0.1333
P_20                  	380	0.1500
P_30                  	380	0.1000
P_100                 	380	0.0600
P_200                 	380	0.0350
P_500                 	380	0.0140
P_1000                	380	0.0070
num_ret               	381	2439
num_rel               	381	28
num_rel_ret           	381	14
map                   	381	0.0325
Rprec                 	381	0.0714
bpref                 	381	0.0446
recip_rank            	381	0.5000
iprec_at_recall_0.00  	381	0.5000
iprec_at_recall_0.10  	381	0.0690
iprec_at_recall_0.20  	381	0.0281
iprec_at_recall_0.30  	381	0.0168
iprec_at_recall_0.40  	381	0.0090
iprec_at_recall_0.50  	381	0.0089
iprec_at_recall_0.60  	381	0.0000
iprec_at_recall_0.70  	381	0.0000
iprec_at_recall_0.80  	381	0.0000
iprec_at_recall_0.90  	381	0.0000
iprec_at_recall_1.00  	381	0.0000
P_5                   	381	0.2000
P_10                  	381	0.1000
P_15                  	381	0.0667
P_20                  	381	0.0500
P_30                  	381	0.0667
P_100                 	381	0.0500
P_200                 	381	0.0250
P_500                 	381	0.0160
P_1000                	381	0.0110
num_ret               	382	2438
num_rel               	382	22
num_rel_ret           	382	20
map                   	382	0.4755
Rprec                 	382	0.5000
bpref                 	382	0.4690
recip_rank            	382	1.0000
iprec_at_recall_0.00  	382	1.0000
iprec_at_recall_0.10  	382	1.0000
iprec_at_recall_0.20  	382	0.7143
iprec_at_recall_0.30  	382	0.7000
iprec_at_recall_0.40  	382	0.6923
iprec_at_recall_0.50  	382	0.5500
iprec_at_recall_0.60  	382	0.2295
iprec_at_recall_0.70  	382	0.1758
iprec_at_recall_0.80  	382	0.0853
iprec_at_recall_0.90  	382	0.0152
iprec_at_recall_1.00  	382	0.0000
P_5                   	382	0.8000
P_10                  	382	0.7000
P_15                  	382	0.6000
P_20                  	382	0.5500
P_30                  	382	0.4333
P_100                 	382	0.1600
P_200                 	382	0.0850
P_500                 	382	0.0380
P_1000                	382	0.0190
num_ret               	383	2729
num_rel               	383	146
num_rel_ret           	383	46
map                   	383	0.0214
Rprec                 	383	0.0685
bpref                 	383	0.0529
recip_rank            	383	0.1000
iprec_at_recall_0.00  	383	0.1935
iprec_at_recall_0.10  	383	0.0673
iprec_at_recall_0.20  	383	0.0494
iprec_at_recall_0.30  	383	0.0183
iprec_at_recall_0.40  	383	0.0000
iprec_at_recall_0.50  	383	0.0000
iprec_at_recall_0.60  	383	0.0000
iprec_at_recall_0.70  	383	0.0000
iprec_at_recall_0.80  	383	0.0000
iprec_at_recall_0.90  	383	0.0000
iprec_at_recall_1.00  	383	0.0000
P_5                   	383	0.0000
P_10                  	383	0.1000
P_15                  	383	0.1333
P_20                  	383	0.1500
P_30                  	383	0.1667
P_100                 	383	0.1000
P_200                 	383	0.0600
P_500                 	383	0.0540
P_1000                	383	0.0340
num_ret               	384	2177
num_rel               	384	51
num_rel_ret           	384	51
map                   	384	0.1885
Rprec                 	384	0.2353
bpref                 	384	0.1599
recip_rank            	384	0.5000
iprec_at_recall_0.00  	384	0.6667
iprec_at_recall_0.10  	384	0.2683
iprec_at_recall_0.20  	384	0.2683
iprec_at_recall_0.30  	384	0.1910
iprec_at_recall_0.40  	384	0.1633
iprec_at_recall_0.50  	384	0.1443
iprec_at_recall_0.60  	384	0.1411
iprec_at_recall_0.70  	384	0.1395
iprec_at_recall_0.80  	384	0.1202
iprec_at_recall_0.90  	384	0.1036
iprec_at_recall_1.00  	384	0.0277
P_5                   	384	0.4000
P_10                  	384	0.5000
P_15                  	384	0.3333
P_20                  	384	0.2500
P_30                  	384	0.2000
P_100                 	384	0.1700
P_200                 	384	0.1400
P_500                 	384	0.0920
P_1000                	384	0.0500
num_ret               	385	2314
num_rel               	385	86
num_rel_ret           	385	68
map                   	385	0.2702
Rprec                 	385	0.2791
bpref                 	385	0.2532
recip_rank            	385	1.0000
iprec_at_recall_0.00  	385	1.0000
iprec_at_recall_0.10  	385	0.9167
iprec_at_recall_0.20  	385	0.6000
iprec_at_recall_0.30  	385	0.2432
iprec_at_recall_0.40  	385	0.1724
iprec_at_recall_0.50  	385	0.1150
iprec_at_recall_0.60  	385	0.0981
iprec_at_recall_0.70  	385	0.0779
iprec_at_recall_0.80  	385	0.0000
iprec_at_recall_0.90  	385	0.0000
iprec_at_recall_1.00  	385	0.0000
P_5                   	385	1.0000
P_10                  	385	0.9000
P_15                  	385	0.8000
P_20                  	385	0.6000
P_30                  	385	0.6000
P_100                 	385	0.2400
P_200                 	385	0.1650
P_500                 	385	0.0980
P_1000                	385	0.0610
num_ret               	386	2394
num_rel               	386	19
num_rel_ret           	386	14
map                   	386	0.0234
Rprec                 	386	0.0526
bpref                 	386	0.0222
recip_rank            	386	0.0714
iprec_at_recall_0.00  	386	0.0714
iprec_at_recall_0.10  	386	0.0600
iprec_at_recall_0.20  	386	0.0580
iprec_at_recall_0.30  	386	0.0375
iprec_at_recall_0.40  	386	0.0216
iprec_at_recall_0.50  	386	0.0168
iprec_at_recall_0.60  	386	0.0109
iprec_at_recall_0.70  	386	0.0080
iprec_at_recall_0.80  	386	0.0000
iprec_at_recall_0.90  	386	0.0000
iprec_at_recall_1.00  	386	0.0000
P_5                   	386	0.0000
P_10                  	386	0.0000
P_15                  	386	0.0667
P_20                  	386	0.0500
P_30                  	386	0.0333
P_100                 	386	0.0400
P_200                 	386	0.0300
P_500                 	386	0.0160
P_1000                	386	0.0100
num_ret               	387	1791
num_rel               	387	85
num_rel_ret           	387	75
map                   	387	0.1116
Rprec                 	387	0.0941
bpref                 	387	0.0707
recip_rank            	387	0.5000
iprec_at_recall_0.00  	387	0.6667
iprec_at_recall_0.10  	387	0.1474
iprec_at_recall_0.20  	387	0.1474
iprec_at_recall_0.30  	387	0.1298
iprec_at_recall_0.40  	387	0.1238
iprec_at_recall_0.50  	387	0.1111
iprec_at_recall_0.60  	387	0.1002
iprec_at_recall_0.70  	387	0.0933
iprec_at_recall_0.80  	387	0.0720
iprec_at_recall_0.90  	387	0.0000
iprec_at_recall_1.00  	387	0.0000
P_5                   	387	0.4000
P_10                  	387	0.3000
P_15                  	387	0.2667
P_20                  	387	0.2000
P_30                  	387	0.1667
P_100                 	387	0.1000
P_200                 	387	0.1200
P_500                 	387	0.1000
P_1000                	387	0.0680
num_ret               	388	3035
num_rel               	388	51
num_rel_ret           	388	26
map                   	388	0.0399
Rprec                 	388	0.1176
bpref                 	388	0.0677
recip_rank            	388	0.5000
iprec_at_recall_0.00  	388	0.5000
iprec_at_recall_0.10  	388	0.1176
iprec_at_recall_0.20  	388	0.0538
iprec_at_recall_0.30  	388	0.0408
iprec_at_recall_0.40  	388	0.0232
iprec_at_recall_0.50  	388	0.0091
iprec_at_recall_0.60  	388	0.0000
iprec_at_recall_0.70  	388	0.0000
iprec_at_recall_0.80  	388	0.0000
iprec_at_recall_0.90  	388	0.0000
iprec_at_recall_1.00  	388	0.0000
P_5                   	388	0.2000
P_10                  	388	0.1000
P_15                  	388	0.1333
P_20                  	388	0.1500
P_30                  	388	0.1000
P_100                 	388	0.0800
P_200                 	388	0.0450
P_500                 	388	0.0360
P_1000                	388	0.0210
num_ret               	389	2709
num_rel               	389	194
num_rel_ret           	389	39
map                   	389	0.0255
Rprec                 	389	0.0876
bpref                 	389	0.0624
recip_rank            	389	0.5000
iprec_at_recall_0.00  	389	0.5000
iprec_at_recall_0.10  	389	0.0583
iprec_at_recall_0.20  	389	0.0159
iprec_at_recall_0.30  	389	0.0000
iprec_at_recall_0.40  	389	0.0000
iprec_at_recall_0.50  	389	0.0000
iprec_at_recall_0.60  	389	0.0000
iprec_at_recall_0.70  	389	0.0000
iprec_at_recall_0.80  	389	0.0000
iprec_at_recall_0.90  	389	0.0000
iprec_at_recall_1.00  	389	0.0000
P_5                   	389	0.2000
P_10                  	389	0.4000
P_15                  	389	0.3333
P_20                  	389	0.2500
P_30                  	389	0.2333
P_100                 	389	0.1200
P_200                 	389	0.0850
P_500                 	389	0.0440
P_1000                	389	0.0310
num_ret               	390	2688
num_rel               	390	134
num_rel_ret           	390	55
map                   	390	0.0867
Rprec                 	390	0.0970
bpref                 	390	0.0955
recip_rank            	390	1.0000
iprec_at_recall_0.00  	390	1.0000
iprec_at_recall_0.10  	390	0.0848
iprec_at_recall_0.20  	390	0.0226
iprec_at_recall_0.30  	390	0.0221
iprec_at_recall_0.40  	390	0.0213
iprec_at_recall_0.50  	390	0.0000
iprec_at_recall_0.60  	390	0.0000
iprec_at_recall_0.70  	390	0.0000
iprec_at_recall_0.80  	390	0.0000
iprec_at_recall_0.90  	390	0.0000
iprec_at_recall_1.00  	390	0.0000
P_5                   	390	1.0000
P_10                  	390	0.8000
P_15                  	390	0.6667
P_20                  	390	0.6000
P_30                  	390	0.4000
P_100                 	390	0.1300
P_200                 	390	0.0700
P_500                 	390	0.0320
P_1000                	390	0.0190
num_ret               	391	3622
num_rel               	391	178
num_rel_ret           	391	126
map                   	391	0.1368
Rprec                 	391	0.2135
bpref                 	391	0.1716
recip_rank            	391	1.0000
iprec_at_recall_0.00  	391	1.0000
iprec_at_recall_0.10  	391	0.2727
iprec_at_recall_0.20  	391	0.2198
iprec_at_recall_0.30  	391	0.1877
iprec_at_recall_0.40  	391	0.1552
iprec_at_recall_0.50  	391	0.0906
iprec_at_recall_0.60  	391	0.0812
iprec_at_recall_0.70  	391	0.0458
iprec_at_recall_0.80  	391	0.0000
iprec_at_recall_0.90  	391	0.0000
iprec_at_recall_1.00  	391	0.0000
P_5                   	391	0.8000
P_10                  	391	0.7000
P_15                  	391	0.4667
P_20                  	391	0.3500
P_30                  	391	0.2667
P_100                 	391	0.2400
P_200                 	391	0.2050
P_500                 	391	0.1480
P_1000                	391	0.0890
num_ret               	392	790
num_rel               	392	105
num_rel_ret           	392	104
map                   	392	0.3887
Rprec                 	392	0.4286
bpref                 	392	0.3505
recip_rank            	392	1.0000
iprec_at_recall_0.00  	392	1.0000
iprec_at_recall_0.10  	392	0.7000
iprec_at_recall_0.20  	392	0.5385
iprec_at_recall_0.30  	392	0.4861
iprec_at_recall_0.40  	392	0.4479
iprec_at_recall_0.50  	392	0.3732
iprec_at_recall_0.60  	392	0.3043
iprec_at_recall_0.70  	392	0.2577
iprec_at_recall_0.80  	392	0.2228
iprec_at_recall_0.90  	392	0.1703
iprec_at_recall_1.00  	392	0.0000
P_5                   	392	0.8000
P_10                  	392	0.7000
P_15                  	392	0.6000
P_20                  	392	0.7000
P_30                  	392	0.5333
P_100                 	392	0.4300
P_200                 	392	0.3050
P_500                 	392	0.1820
P_1000                	392	0.1040
num_ret               	393	2671
num_rel               	393	71
num_rel_ret           	393	15
map                   	393	0.0569
Rprec                 	393	0.0986
bpref                 	393	0.0992
recip_rank            	393	0.5000
iprec_at_recall_0.00  	393	0.6667
iprec_at_recall_0.10  	393	0.1170
iprec_at_recall_0.20  	393	0.0142
iprec_at_recall_0.30  	393	0.0000
iprec_at_recall_0.40  	393	0.0000
iprec_at_recall_0.50  	393	0.0000
iprec_at_recall_0.60  	393	0.0000
iprec_at_recall_0.70  	393	0.0000
iprec_at_recall_0.80  	393	0.0000
iprec_at_recall_0.90  	393	0.0000
iprec_at_recall_1.00  	393	0.0000
P_5                   	393	0.4000
P_10                  	393	0.5000
P_15                  	393	0.4000
P_20                  	393	0.3000
P_30                  	393	0.2000
P_100                 	393	0.1100
P_200                 	393	0.0650
P_500                 	393	0.0280
P_1000                	393	0.0140
num_ret               	394	3389
num_rel               	394	17
num_rel_ret           	394	7
map                   	394	0.0069
Rprec                 	394	0.0000
bpref                 	394	0.0000
recip_rank            	394	0.0145
iprec_at_recall_0.00  	394	0.0380
iprec_at_recall_0.10  	394	0.0380
iprec_at_recall_0.20  	394	0.0101
iprec_at_recall_0.30  	394	0.0091
iprec_at_recall_0.40  	394	0.0083
iprec_at_recall_0.50  	394	0.0000
iprec_at_recall_0.60  	394	0.0000
iprec_at_recall_0.70  	394	0.0000
iprec_at_recall_0.80  	394	0.0000
iprec_at_recall_0.90  	394	0.0000
iprec_at_recall_1.00  	394	0.0000
P_5                   	394	0.0000
P_10                  	394	0.0000
P_15                  	394	0.0000
P_20                  	394	0.0000
P_30                  	394	0.0000
P_100                 	394	0.0300
P_200                 	394	0.0150
P_500                 	394	0.0100
P_1000                	394	0.0070
num_ret               	395	1470
num_rel               	395	213
num_rel_ret           	395	151
map                   	395	0.1318
Rprec                 	395	0.2207
bpref                 	395	0.1447
recip_rank            	395	0.1667
iprec_at_recall_0.00  	395	0.3636
iprec_at_recall_0.10  	395	0.2300
iprec_at_recall_0.20  	395	0.2300
iprec_at_recall_0.30  	395	0.2300
iprec_at_recall_0.40  	395	0.1960
iprec_at_recall_0.50  	395	0.1442
iprec_at_recall_0.60  	395	0.1309
iprec_at_recall_0.70  	395	0.1071
iprec_at_recall_0.80  	395	0.0000
iprec_at_recall_0.90  	395	0.0000
iprec_at_recall_1.00  	395	0.0000
P_5                   	395	0.0000
P_10                  	395	0.3000
P_15                  	395	0.3333
P_20                  	395	0.2500
P_30                  	395	0.2333
P_100                 	395	0.2300
P_200                 	395	0.2200
P_500                 	395	0.1800
P_1000                	395	0.1280
num_ret               	396	2284
num_rel               	396	59
num_rel_ret           	396	35
map                   	396	0.2287
Rprec                 	396	0.3390
bpref                 	396	0.2968
recip_rank            	396	0.5000
iprec_at_recall_0.00  	396	0.8333
iprec_at_recall_0.10  	396	0.7692
iprec_at_recall_0.20  	396	0.7647
iprec_at_recall_0.30  	396	0.4750
iprec_at_recall_0.40  	396	0.0314
iprec_at_recall_0.50  	396	0.0221
iprec_at_recall_0.60  	396	0.0000
iprec_at_recall_0.70  	396	0.0000
iprec_at_recall_0.80  	396	0.0000
iprec_at_recall_0.90  	396	0.0000
iprec_at_recall_1.00  	396	0.0000
P_5                   	396	0.8000
P_10                  	396	0.7000
P_15                  	396	0.7333
P_20                  	396	0.7000
P_30                  	396	0.5333
P_100                 	396	0.2000
P_200                 	396	0.1000
P_500                 	396	0.0440
P_1000                	396	0.0240
num_ret               	397	2324
num_rel               	397	27
num_rel_ret           	397	25
map                   	397	0.3450
Rprec                 	397	0.4074
bpref                 	397	0.3663
recip_rank            	397	1.0000
iprec_at_recall_0.00  	397	1.0000
iprec_at_recall_0.10  	397	1.0000
iprec_at_recall_0.20  	397	0.7500
iprec_at_recall_0.30  	397	0.6923
iprec_at_recall_0.40  	397	0.4400
iprec_at_recall_0.50  	397	0.0194
iprec_at_recall_0.60  	397	0.0160
iprec_at_recall_0.70  	397	0.0160
iprec_at_recall_0.80  	397	0.0138
iprec_at_recall_0.90  	397	0.0120
iprec_at_recall_1.00  	397	0.0000
P_5                   	397	1.0000
P_10                  	397	0.6000
P_15                  	397	0.6000
P_20                  	397	0.5000
P_30                  	397	0.3667
P_100                 	397	0.1200
P_200                 	397	0.0600
P_500                 	397	0.0260
P_1000                	397	0.0160
num_ret               	398	2776
num_rel               	398	145
num_rel_ret           	398	53
map                   	398	0.0147
Rprec                 	398	0.0414
bpref                 	398	0.0243
recip_rank            	398	0.0417
iprec_at_recall_0.00  	398	0.0536
iprec_at_recall_0.10  	398	0.0519
iprec_at_recall_0.20  	398	0.0513
iprec_at_recall_0.30  	398	0.0278
iprec_at_recall_0.40  	398	0.0000
iprec_at_recall_0.50  	398	0.0000
iprec_at_recall_0.60  	398	0.0000
iprec_at_recall_0.70  	398	0.0000
iprec_at_recall_0.80  	398	0.0000
iprec_at_recall_0.90  	398	0.0000
iprec_at_recall_1.00  	398	0.0000
P_5                   	398	0.0000
P_10                  	398	0.0000
P_15                  	398	0.0000
P_20                  	398	0.0000
P_30                  	398	0.0333
P_100                 	398	0.0500
P_200                 	398	0.0450
P_500                 	398	0.0440
P_1000                	398	0.0340
num_ret               	399	1800
num_rel               	399	102
num_rel_ret           	399	42
map                   	399	0.1396
Rprec                 	399	0.3235
bpref                 	399	0.2430
recip_rank            	399	0.3333
iprec_at_recall_0.00  	399	0.4737
iprec_at_recall_0.10  	399	0.4595
iprec_at_recall_0.20  	399	0.4038
iprec_at_recall_0.30  	399	0.3478
iprec_at_recall_0.40  	399	0.0319
iprec_at_recall_0.50  	399	0.0000
iprec_at_recall_0.60  	399	0.0000
iprec_at_recall_0.70  	399	0.0000
iprec_at_recall_0.80  	399	0.0000
iprec_at_recall_0.90  	399	0.0000
iprec_at_recall_1.00  	399	0.0000
P_5                   	399	0.2000
P_10                  	399	0.3000
P_15                  	399	0.4667
P_20                  	399	0.4500
P_30                  	399	0.4333
P_100                 	399	0.3200
P_200                 	399	0.1850
P_500                 	399	0.0760
P_1000                	399	0.0400
num_ret               	400	1972
num_rel               	400	125
num_rel_ret           	400	110
map                   	400	0.3570
Rprec                 	400	0.4400
bpref                 	400	0.3733
recip_rank            	400	0.5000
iprec_at_recall_0.00  	400	0.8000
iprec_at_recall_0.10  	400	0.6957
iprec_at_recall_0.20  	400	0.5588
iprec_at_recall_0.30  	400	0.5588
iprec_at_recall_0.40  	400	0.4737
iprec_at_recall_0.50  	400	0.3684
iprec_at_recall_0.60  	400	0.2794
iprec_at_recall_0.70  	400	0.2070
iprec_at_recall_0.80  	400	0.0952
iprec_at_recall_0.90  	400	0.0000
iprec_at_recall_1.00  	400	0.0000
P_5                   	400	0.8000
P_10                  	400	0.7000
P_15                  	400	0.6667
P_20                  	400	0.6500
P_30                  	400	0.5667
P_100                 	400	0.4800
P_200                 	400	0.3350
P_500                 	400	0.1820
P_1000                	400	0.0990
runid                 	all	combANZ
num_q                 	all	50
num_ret               	all	111230
num_rel               	all	4674
num_rel_ret           	all	2821
map                   	all	0.1868
gm_map                	all	0.0987
Rprec                 	all	0.2428
bpref                 	all	0.1990
recip_rank            	all	0.5493
iprec_at_recall_0.00  	all	0.6255
iprec_at_recall_0.10  	all	0.4034
iprec_at_recall_0.20  	all	0.3240
iprec_at_recall_0.30  	all	0.2781
iprec_at_recall_0.40  	all	0.2152
iprec_at_recall_0.50  	all	0.1525
iprec_at_recall_0.60  	all	0.1040
iprec_at_recall_0.70  	all	0.0733
iprec_at_recall_0.80  	all	0.0447
iprec_at_recall_0.90  	all	0.0325
iprec_at_recall_1.00  	all	0.0080
P_5                   	all	0.4240
P_10                  	all	0.3960
P_15                  	all	0.3813
P_20                  	all	0.3420
P_30                  	all	0.3040
P_100                 	all	0.1838
P_200                 	all	0.1328
P_500                 	all	0.0776
P_1000                	all	0.0475
